{
      "status": "ok",
          "total_hits": 430,
              "page": 1,
                  "total_pages": 215,
                      "page_size": 25,
                          "articles": [
                                  {
                                              "title": "bitcoin: Moving beyond Bitcoin to the next crypto revolution in 2021",
                                                          "author": null,
                                                                      "published_date": "2021-03-31 10:29:00",
                                                                                  "published_date_precision": "full",
                                                                                              "link": "https://economictimes.indiatimes.com/markets/stocks/news/moving-beyond-bitcoin-to-the-next-crypto-revolution-in-2021/articleshow/81773999.cms",
                                                                                                          "clean_url": "indiatimes.com",
                                                                                                                      "summary": "ET Spotlight SpecialThe dramatic rise in Bitcoin value has put cryptocurrency on the map in the investment space. Since its inception - not over a decade ago, Bitcoin has surpassed great heights in terms of value. It is the biggest cryptocurrency\n with a $1 trillion economy. While Bitcoin is the largest cryptocurrency, there are over 5000+ cryptocurrencies currently in circulation, many of which are listed on the CoinSwitch\n Kuber app. However, most people are unaware of these currencies. Severa",
                                                                                                                                  "rights": "indiatimes.com",
                                                                                                                                              "rank": 325,
                                                                                                                                                          "topic": "economics",
                                                                                                                                                                      "country": "IN",
                                                                                                                                                                                  "language": "en",
                                                                                                                                                                                              "authors": [],
                                                                                                                                                                                                          "media": "https://img.etimg.com/thumb/msid-81773937,width-1070,height-580,imgsize-101309,overlay-etmarkets/photo.jpg",
                                                                                                                                                                                                                      "is_opinion": false,
                                                                                                                                                                                                                                  "twitter_account": "@EconomicTimes",
                                                                                                                                                                                                                                              "_score": 10.445324,
                                                                                                                                                                                                                                                          "_id": "d249a630bc9e1b76287940503041b1f4"
                                                                                                                                                                                                                                                                  },
                                                                                                                                                                                                                                                                          {
                                                                                                                                                                                                                                                                                      "title": "Bitcoin and the Future of Decentralized Finance",
                                                                                                                                                                                                                                                                                                  "author": null,
                                                                                                                                                                                                                                                                                                              "published_date": "2021-03-31 12:58:12",
                                                                                                                                                                                                                                                                                                                          "published_date_precision": "full",
                                                                                                                                                                                                                                                                                                                                      "link": "https://hbr.org/podcast/2021/03/bitcoin-and-the-future-of-decentralized-finance",
                                                                                                                                                                                                                                                                                                                                                  "clean_url": "hbr.org",
                                                                                                                                                                                                                                                                                                                                                              "summary": "You have 1 free articles left this month. You are reading your last free article for this month. Create an account to read 2 more. \n \n\n March 31, 2021 Meltem Demirors, Chief Strategy Officer at CoinShares, joins Azeem Azhar to explore the potential and politics of cryptocurrencies: from the ideological origins of Bitcoin to the new wave of decentralized financial products that could disrupt traditional finance.\nThey also discuss:\n\nWhy the values of the Cypherpunk community are enshrined in Bitco",
                                                                                                                                                                                                                                                                                                                                                                          "rights": "hbr.org",
                                                                                                                                                                                                                                                                                                                                                                                      "rank": 273,
                                                                                                                                                                                                                                                                                                                                                                                                  "topic": "news",
                                                                                                                                                                                                                                                                                                                                                                                                              "country": null,
                                                                                                                                                                                                                                                                                                                                                                                                                          "language": "en",
                                                                                                                                                                                                                                                                                                                                                                                                                                      "authors": [],
                                                                                                                                                                                                                                                                                                                                                                                                                                                  "media": "https://hbr.org/resources/images/article_assets/2019/04/Exponential_View-WordPress.png",
                                                                                                                                                                                                                                                                                                                                                                                                                                                              "is_opinion": false,
                                                                                                                                                                                                                                                                                                                                                                                                                                                                          "twitter_account": "@harvardbiz",
                                                                                                                                                                                                                                                                                                                                                                                                                                                                                      "_score": 10.325988,
                                                                                                                                                                                                                                                                                                                                                                                                                                                                                                  "_id": "9380a6166913f551633fb7095fd9ded9"
                                                                                                                                                                                                                                                                                                                                                                                                                                                                                                          }
                                                                                                                                                                                                                                                                                                                                                                                                                                                                                                              ],
                                                                                                                                                                                                                                                                                                                                                                                                                                                                                                                  "user_input": {
                                                                                                                                                                                                                                                                                                                                                                                                                                                                                                                          "q": "bitcoin",
                                                                                                                                                                                                                                                                                                                                                                                                                                                                                                                                  "lang": "en",
                                                                                                                                                                                                                                                                                                                                                                                                                                                                                                                                          "from": "2021-03-25 00:00:00",
                                                                                                                                                                                                                                                                                                                                                                                                                                                                                                                                                  "sort_by": "relevancy",
                                                                                                                                                                                                                                                                                                                                                                                                                                                                                                                                                          "page": 1,
                                                                                                                                                                                                                                                                                                                                                                                                                                                                                                                                                                  "size": 25
                                                                                                                                                                                                                                                                                                                                                                                                                                                                                                                                                                      }
                                                                                                                                                                                                                                                                                                                                                                                                                                                                                                                                                                      }
}